%YAML 1.1
%TAG !u! tag:unity3d.com,2011:
--- !u!74 &7400000
AnimationClip:
  m_ObjectHideFlags: 0
  m_CorrespondingSourceObject: {fileID: 0}
  m_PrefabInstance: {fileID: 0}
  m_PrefabAsset: {fileID: 0}
  m_Name: Attack_1
  serializedVersion: 6
  m_Legacy: 0
  m_Compressed: 0
  m_UseHighQualityCurve: 1
  m_RotationCurves: []
  m_CompressedRotationCurves: []
  m_EulerCurves: []
  m_PositionCurves: []
  m_ScaleCurves: []
  m_FloatCurves: []
  m_PPtrCurves:
  - curve:
    - time: 0
      value: {fileID: -8915327726919978405, guid: cb8b9d8ad2836d34f97b7378139c2218, type: 3}
    - time: 0.11666667
      value: {fileID: 4416717768442454902, guid: cb8b9d8ad2836d34f97b7378139c2218, type: 3}
    - time: 0.23333333
      value: {fileID: -8053095777402275025, guid: cb8b9d8ad2836d34f97b7378139c2218, type: 3}
    - time: 0.31666666
      value: {fileID: 4688295478533005478, guid: cb8b9d8ad2836d34f97b7378139c2218, type: 3}
    - time: 0.4
      value: {fileID: 3156989228384878200, guid: cb8b9d8ad2836d34f97b7378139c2218, type: 3}
    - time: 0.53333336
      value: {fileID: -4176445809780997858, guid: cb8b9d8ad2836d34f97b7378139c2218, type: 3}
    attribute: m_Sprite
    path: 
    classID: 212
    script: {fileID: 0}
  m_SampleRate: 60
  m_WrapMode: 0
  m_Bounds:
    m_Center: {x: 0, y: 0, z: 0}
    m_Extent: {x: 0, y: 0, z: 0}
  m_ClipBindingConstant:
    genericBindings:
    - serializedVersion: 2
      path: 0
      attribute: 0
      script: {fileID: 0}
      typeID: 212
      customType: 23
      isPPtrCurve: 1
    pptrCurveMapping:
    - {fileID: -8915327726919978405, guid: cb8b9d8ad2836d34f97b7378139c2218, type: 3}
    - {fileID: 4416717768442454902, guid: cb8b9d8ad2836d34f97b7378139c2218, type: 3}
    - {fileID: -8053095777402275025, guid: cb8b9d8ad2836d34f97b7378139c2218, type: 3}
    - {fileID: 4688295478533005478, guid: cb8b9d8ad2836d34f97b7378139c2218, type: 3}
    - {fileID: 3156989228384878200, guid: cb8b9d8ad2836d34f97b7378139c2218, type: 3}
    - {fileID: -4176445809780997858, guid: cb8b9d8ad2836d34f97b7378139c2218, type: 3}
  m_AnimationClipSettings:
    serializedVersion: 2
    m_AdditiveReferencePoseClip: {fileID: 0}
    m_AdditiveReferencePoseTime: 0
    m_StartTime: 0
    m_StopTime: 0.55
    m_OrientationOffsetY: 0
    m_Level: 0
    m_CycleOffset: 0
    m_HasAdditiveReferencePose: 0
    m_LoopTime: 1
    m_LoopBlend: 0
    m_LoopBlendOrientation: 0
    m_LoopBlendPositionY: 0
    m_LoopBlendPositionXZ: 0
    m_KeepOriginalOrientation: 0
    m_KeepOriginalPositionY: 1
    m_KeepOriginalPositionXZ: 0
    m_HeightFromFeet: 0
    m_Mirror: 0
  m_EditorCurves: []
  m_EulerEditorCurves: []
  m_HasGenericRootTransform: 0
  m_HasMotionFloatCurves: 0
  m_Events:
  - time: 0.23333333
    functionName: SetColliderForSprite
    data: 
    objectReferenceParameter: {fileID: 0}
    floatParameter: 0
    intParameter: 0
    messageOptions: 0
  - time: 0.31666666
    functionName: SetColliderForSprite
    data: 
    objectReferenceParameter: {fileID: 0}
    floatParameter: 0
    intParameter: 1
    messageOptions: 0
  - time: 0.4
    functionName: DisableAllHitBox
    data: 
    objectReferenceParameter: {fileID: 0}
    floatParameter: 0
    intParameter: 0
    messageOptions: 0
