%YAML 1.1
%TAG !u! tag:unity3d.com,2011:
--- !u!74 &7400000
AnimationClip:
  m_ObjectHideFlags: 0
  m_CorrespondingSourceObject: {fileID: 0}
  m_PrefabInstance: {fileID: 0}
  m_PrefabAsset: {fileID: 0}
  m_Name: ENDBGIDLE
  serializedVersion: 6
  m_Legacy: 0
  m_Compressed: 0
  m_UseHighQualityCurve: 1
  m_RotationCurves: []
  m_CompressedRotationCurves: []
  m_EulerCurves: []
  m_PositionCurves: []
  m_ScaleCurves: []
  m_FloatCurves: []
  m_PPtrCurves:
  - curve:
    - time: 0
      value: {fileID: 21300000, guid: 57d22a0861f0ff8488fb0841bf8d7d1f, type: 3}
    - time: 0.1
      value: {fileID: 21300000, guid: 6db2cd2620a4cfc43ad82382c702edb4, type: 3}
    - time: 0.2
      value: {fileID: 21300000, guid: 8ef9e785244593843b9feac7921e12cc, type: 3}
    - time: 0.28333333
      value: {fileID: 21300000, guid: 2abf9584a62063344b805484ad94cce2, type: 3}
    - time: 0.38333333
      value: {fileID: 21300000, guid: 685e0df229673764baa2929f0895aa27, type: 3}
    - time: 0.48333332
      value: {fileID: 21300000, guid: 8f4a847be07319a489adaf697aa494fd, type: 3}
    - time: 0.5833333
      value: {fileID: 21300000, guid: 0ace297b5c18ae747a72576a93eb7b23, type: 3}
    - time: 0.6666667
      value: {fileID: 21300000, guid: 642c0248896b20043a61f47918668ac0, type: 3}
    - time: 0.76666665
      value: {fileID: 21300000, guid: 21ee7508cabfcf64bb8b982f46837dc1, type: 3}
    - time: 0.8666667
      value: {fileID: 21300000, guid: c5a108cf41364d945a7e6c97dfe5222c, type: 3}
    - time: 0.96666664
      value: {fileID: 21300000, guid: 61f9b0974cb58f64387d35c1a2cdc038, type: 3}
    - time: 1.05
      value: {fileID: 21300000, guid: 95fb630dd60ecdd41b56da0869b036c3, type: 3}
    - time: 1.15
      value: {fileID: 21300000, guid: 7e5a4ae244166d045ab607c69837703d, type: 3}
    - time: 1.25
      value: {fileID: 21300000, guid: 30089a33db5ac49409eb19c9df03e839, type: 3}
    - time: 1.35
      value: {fileID: 21300000, guid: 782187150ae4d8f499eb4766097b4373, type: 3}
    - time: 1.4333333
      value: {fileID: 21300000, guid: ab93164613bdb7d41b3ada3b6528a335, type: 3}
    - time: 1.5333333
      value: {fileID: 21300000, guid: 50d25de3514d6db4498b4c45cd230932, type: 3}
    - time: 1.6333333
      value: {fileID: 21300000, guid: b1cf804eb093e184087d7ac6588e9170, type: 3}
    - time: 1.7333333
      value: {fileID: 21300000, guid: 97d6c8c01b14b6e4088793e1052e0204, type: 3}
    - time: 1.8166667
      value: {fileID: 21300000, guid: c531379e736be424a8300b938055f991, type: 3}
    - time: 1.9166666
      value: {fileID: 21300000, guid: a982b00e23ff51b458f1ec641b6722ea, type: 3}
    - time: 2.0166667
      value: {fileID: 21300000, guid: 564e787b1ea83fc4c83cc59b6130e52f, type: 3}
    attribute: m_Sprite
    path: 
    classID: 114
    script: {fileID: 11500000, guid: fe87c0e1cc204ed48ad3b37840f39efc, type: 3}
  m_SampleRate: 60
  m_WrapMode: 0
  m_Bounds:
    m_Center: {x: 0, y: 0, z: 0}
    m_Extent: {x: 0, y: 0, z: 0}
  m_ClipBindingConstant:
    genericBindings:
    - serializedVersion: 2
      path: 0
      attribute: 2015549526
      script: {fileID: 11500000, guid: fe87c0e1cc204ed48ad3b37840f39efc, type: 3}
      typeID: 114
      customType: 0
      isPPtrCurve: 1
    pptrCurveMapping:
    - {fileID: 21300000, guid: 57d22a0861f0ff8488fb0841bf8d7d1f, type: 3}
    - {fileID: 21300000, guid: 6db2cd2620a4cfc43ad82382c702edb4, type: 3}
    - {fileID: 21300000, guid: 8ef9e785244593843b9feac7921e12cc, type: 3}
    - {fileID: 21300000, guid: 2abf9584a62063344b805484ad94cce2, type: 3}
    - {fileID: 21300000, guid: 685e0df229673764baa2929f0895aa27, type: 3}
    - {fileID: 21300000, guid: 8f4a847be07319a489adaf697aa494fd, type: 3}
    - {fileID: 21300000, guid: 0ace297b5c18ae747a72576a93eb7b23, type: 3}
    - {fileID: 21300000, guid: 642c0248896b20043a61f47918668ac0, type: 3}
    - {fileID: 21300000, guid: 21ee7508cabfcf64bb8b982f46837dc1, type: 3}
    - {fileID: 21300000, guid: c5a108cf41364d945a7e6c97dfe5222c, type: 3}
    - {fileID: 21300000, guid: 61f9b0974cb58f64387d35c1a2cdc038, type: 3}
    - {fileID: 21300000, guid: 95fb630dd60ecdd41b56da0869b036c3, type: 3}
    - {fileID: 21300000, guid: 7e5a4ae244166d045ab607c69837703d, type: 3}
    - {fileID: 21300000, guid: 30089a33db5ac49409eb19c9df03e839, type: 3}
    - {fileID: 21300000, guid: 782187150ae4d8f499eb4766097b4373, type: 3}
    - {fileID: 21300000, guid: ab93164613bdb7d41b3ada3b6528a335, type: 3}
    - {fileID: 21300000, guid: 50d25de3514d6db4498b4c45cd230932, type: 3}
    - {fileID: 21300000, guid: b1cf804eb093e184087d7ac6588e9170, type: 3}
    - {fileID: 21300000, guid: 97d6c8c01b14b6e4088793e1052e0204, type: 3}
    - {fileID: 21300000, guid: c531379e736be424a8300b938055f991, type: 3}
    - {fileID: 21300000, guid: a982b00e23ff51b458f1ec641b6722ea, type: 3}
    - {fileID: 21300000, guid: 564e787b1ea83fc4c83cc59b6130e52f, type: 3}
  m_AnimationClipSettings:
    serializedVersion: 2
    m_AdditiveReferencePoseClip: {fileID: 0}
    m_AdditiveReferencePoseTime: 0
    m_StartTime: 0
    m_StopTime: 2.0333333
    m_OrientationOffsetY: 0
    m_Level: 0
    m_CycleOffset: 0
    m_HasAdditiveReferencePose: 0
    m_LoopTime: 1
    m_LoopBlend: 0
    m_LoopBlendOrientation: 0
    m_LoopBlendPositionY: 0
    m_LoopBlendPositionXZ: 0
    m_KeepOriginalOrientation: 0
    m_KeepOriginalPositionY: 1
    m_KeepOriginalPositionXZ: 0
    m_HeightFromFeet: 0
    m_Mirror: 0
  m_EditorCurves: []
  m_EulerEditorCurves: []
  m_HasGenericRootTransform: 0
  m_HasMotionFloatCurves: 0
  m_Events: []
